-- Merging decision tree log ---
manifest
ADDED from /Users/sem/IdeaProjects/transceiver-app/client/clienttranslate/platforms/android/AndroidManifest.xml:2:1-25:12
	package
		ADDED from /Users/sem/IdeaProjects/transceiver-app/client/clienttranslate/platforms/android/AndroidManifest.xml:2:102-135
		INJECTED from /Users/sem/IdeaProjects/transceiver-app/client/clienttranslate/platforms/android/AndroidManifest.xml
		INJECTED from /Users/sem/IdeaProjects/transceiver-app/client/clienttranslate/platforms/android/AndroidManifest.xml
	android:versionName
		ADDED from /Users/sem/IdeaProjects/transceiver-app/client/clienttranslate/platforms/android/AndroidManifest.xml:2:74-101
		INJECTED from /Users/sem/IdeaProjects/transceiver-app/client/clienttranslate/platforms/android/AndroidManifest.xml
		INJECTED from /Users/sem/IdeaProjects/transceiver-app/client/clienttranslate/platforms/android/AndroidManifest.xml
	android:hardwareAccelerated
		ADDED from /Users/sem/IdeaProjects/transceiver-app/client/clienttranslate/platforms/android/AndroidManifest.xml:2:11-45
	android:versionCode
		ADDED from /Users/sem/IdeaProjects/transceiver-app/client/clienttranslate/platforms/android/AndroidManifest.xml:2:46-73
		INJECTED from /Users/sem/IdeaProjects/transceiver-app/client/clienttranslate/platforms/android/AndroidManifest.xml
		INJECTED from /Users/sem/IdeaProjects/transceiver-app/client/clienttranslate/platforms/android/AndroidManifest.xml
	xmlns:android
		ADDED from /Users/sem/IdeaProjects/transceiver-app/client/clienttranslate/platforms/android/AndroidManifest.xml:2:136-194
supports-screens
ADDED from /Users/sem/IdeaProjects/transceiver-app/client/clienttranslate/platforms/android/AndroidManifest.xml:3:5-191
	android:largeScreens
		ADDED from /Users/sem/IdeaProjects/transceiver-app/client/clienttranslate/platforms/android/AndroidManifest.xml:3:49-76
	android:smallScreens
		ADDED from /Users/sem/IdeaProjects/transceiver-app/client/clienttranslate/platforms/android/AndroidManifest.xml:3:132-159
	android:normalScreens
		ADDED from /Users/sem/IdeaProjects/transceiver-app/client/clienttranslate/platforms/android/AndroidManifest.xml:3:77-105
	android:xlargeScreens
		ADDED from /Users/sem/IdeaProjects/transceiver-app/client/clienttranslate/platforms/android/AndroidManifest.xml:3:160-188
	android:resizeable
		ADDED from /Users/sem/IdeaProjects/transceiver-app/client/clienttranslate/platforms/android/AndroidManifest.xml:3:106-131
	android:anyDensity
		ADDED from /Users/sem/IdeaProjects/transceiver-app/client/clienttranslate/platforms/android/AndroidManifest.xml:3:23-48
uses-permission#android.permission.INTERNET
ADDED from /Users/sem/IdeaProjects/transceiver-app/client/clienttranslate/platforms/android/AndroidManifest.xml:4:5-67
	android:name
		ADDED from /Users/sem/IdeaProjects/transceiver-app/client/clienttranslate/platforms/android/AndroidManifest.xml:4:22-64
uses-permission#android.permission.CAMERA
ADDED from /Users/sem/IdeaProjects/transceiver-app/client/clienttranslate/platforms/android/AndroidManifest.xml:5:5-65
	android:name
		ADDED from /Users/sem/IdeaProjects/transceiver-app/client/clienttranslate/platforms/android/AndroidManifest.xml:5:22-62
uses-feature#android.hardware.camera
ADDED from /Users/sem/IdeaProjects/transceiver-app/client/clienttranslate/platforms/android/AndroidManifest.xml:6:5-60
	android:name
		ADDED from /Users/sem/IdeaProjects/transceiver-app/client/clienttranslate/platforms/android/AndroidManifest.xml:6:19-57
uses-feature#android.hardware.camera.autofocus
ADDED from /Users/sem/IdeaProjects/transceiver-app/client/clienttranslate/platforms/android/AndroidManifest.xml:7:5-70
	android:name
		ADDED from /Users/sem/IdeaProjects/transceiver-app/client/clienttranslate/platforms/android/AndroidManifest.xml:7:19-67
uses-permission#android.permission.ACCESS_NETWORK_STATE
ADDED from /Users/sem/IdeaProjects/transceiver-app/client/clienttranslate/platforms/android/AndroidManifest.xml:8:5-79
	android:name
		ADDED from /Users/sem/IdeaProjects/transceiver-app/client/clienttranslate/platforms/android/AndroidManifest.xml:8:22-76
uses-permission#android.permission.MODIFY_AUDIO_SETTINGS
ADDED from /Users/sem/IdeaProjects/transceiver-app/client/clienttranslate/platforms/android/AndroidManifest.xml:9:5-80
	android:name
		ADDED from /Users/sem/IdeaProjects/transceiver-app/client/clienttranslate/platforms/android/AndroidManifest.xml:9:22-77
uses-permission#android.permission.RECORD_AUDIO
ADDED from /Users/sem/IdeaProjects/transceiver-app/client/clienttranslate/platforms/android/AndroidManifest.xml:10:5-71
	android:name
		ADDED from /Users/sem/IdeaProjects/transceiver-app/client/clienttranslate/platforms/android/AndroidManifest.xml:10:22-68
uses-permission#android.permission.WAKE_LOCK
ADDED from /Users/sem/IdeaProjects/transceiver-app/client/clienttranslate/platforms/android/AndroidManifest.xml:11:5-68
	android:name
		ADDED from /Users/sem/IdeaProjects/transceiver-app/client/clienttranslate/platforms/android/AndroidManifest.xml:11:22-65
uses-permission#android.permission.WRITE_EXTERNAL_STORAGE
ADDED from /Users/sem/IdeaProjects/transceiver-app/client/clienttranslate/platforms/android/AndroidManifest.xml:12:5-81
	android:name
		ADDED from /Users/sem/IdeaProjects/transceiver-app/client/clienttranslate/platforms/android/AndroidManifest.xml:12:22-78
application
ADDED from /Users/sem/IdeaProjects/transceiver-app/client/clienttranslate/platforms/android/AndroidManifest.xml:13:5-20:19
	android:label
		ADDED from /Users/sem/IdeaProjects/transceiver-app/client/clienttranslate/platforms/android/AndroidManifest.xml:13:81-113
	android:supportsRtl
		ADDED from /Users/sem/IdeaProjects/transceiver-app/client/clienttranslate/platforms/android/AndroidManifest.xml:13:114-140
	android:hardwareAccelerated
		ADDED from /Users/sem/IdeaProjects/transceiver-app/client/clienttranslate/platforms/android/AndroidManifest.xml:13:18-52
	android:icon
		ADDED from /Users/sem/IdeaProjects/transceiver-app/client/clienttranslate/platforms/android/AndroidManifest.xml:13:53-80
activity#com.sem.clienttranslate.MainActivity
ADDED from /Users/sem/IdeaProjects/transceiver-app/client/clienttranslate/platforms/android/AndroidManifest.xml:14:9-19:20
	android:label
		ADDED from /Users/sem/IdeaProjects/transceiver-app/client/clienttranslate/platforms/android/AndroidManifest.xml:14:97-134
	android:launchMode
		ADDED from /Users/sem/IdeaProjects/transceiver-app/client/clienttranslate/platforms/android/AndroidManifest.xml:14:135-165
	android:windowSoftInputMode
		ADDED from /Users/sem/IdeaProjects/transceiver-app/client/clienttranslate/platforms/android/AndroidManifest.xml:14:257-299
	android:configChanges
		ADDED from /Users/sem/IdeaProjects/transceiver-app/client/clienttranslate/platforms/android/AndroidManifest.xml:14:19-96
	android:theme
		ADDED from /Users/sem/IdeaProjects/transceiver-app/client/clienttranslate/platforms/android/AndroidManifest.xml:14:194-256
	android:name
		ADDED from /Users/sem/IdeaProjects/transceiver-app/client/clienttranslate/platforms/android/AndroidManifest.xml:14:166-193
intent-filter#android.intent.action.MAIN+android.intent.category.LAUNCHER
ADDED from /Users/sem/IdeaProjects/transceiver-app/client/clienttranslate/platforms/android/AndroidManifest.xml:15:13-18:29
	android:label
		ADDED from /Users/sem/IdeaProjects/transceiver-app/client/clienttranslate/platforms/android/AndroidManifest.xml:15:28-65
action#android.intent.action.MAIN
ADDED from /Users/sem/IdeaProjects/transceiver-app/client/clienttranslate/platforms/android/AndroidManifest.xml:16:17-69
	android:name
		ADDED from /Users/sem/IdeaProjects/transceiver-app/client/clienttranslate/platforms/android/AndroidManifest.xml:16:25-66
category#android.intent.category.LAUNCHER
ADDED from /Users/sem/IdeaProjects/transceiver-app/client/clienttranslate/platforms/android/AndroidManifest.xml:17:17-77
	android:name
		ADDED from /Users/sem/IdeaProjects/transceiver-app/client/clienttranslate/platforms/android/AndroidManifest.xml:17:27-74
uses-sdk
ADDED from /Users/sem/IdeaProjects/transceiver-app/client/clienttranslate/platforms/android/AndroidManifest.xml:21:5-74
MERGED from [org.xwalk:xwalk_core_library:23.53.589.4] /Users/sem/IdeaProjects/transceiver-app/client/clienttranslate/platforms/android/build/intermediates/exploded-aar/org.xwalk/xwalk_core_library/23.53.589.4/AndroidManifest.xml:6:5-8:41
MERGED from [com.android.support:support-v4:27.1.1] /Users/sem/IdeaProjects/transceiver-app/client/clienttranslate/platforms/android/build/intermediates/exploded-aar/com.android.support/support-v4/27.1.1/AndroidManifest.xml:20:5-44
MERGED from [com.android.support:support-media-compat:27.1.1] /Users/sem/IdeaProjects/transceiver-app/client/clienttranslate/platforms/android/build/intermediates/exploded-aar/com.android.support/support-media-compat/27.1.1/AndroidManifest.xml:20:5-44
MERGED from [com.android.support:support-fragment:27.1.1] /Users/sem/IdeaProjects/transceiver-app/client/clienttranslate/platforms/android/build/intermediates/exploded-aar/com.android.support/support-fragment/27.1.1/AndroidManifest.xml:20:5-44
MERGED from [com.android.support:support-core-ui:27.1.1] /Users/sem/IdeaProjects/transceiver-app/client/clienttranslate/platforms/android/build/intermediates/exploded-aar/com.android.support/support-core-ui/27.1.1/AndroidManifest.xml:20:5-44
MERGED from [com.android.support:support-core-utils:27.1.1] /Users/sem/IdeaProjects/transceiver-app/client/clienttranslate/platforms/android/build/intermediates/exploded-aar/com.android.support/support-core-utils/27.1.1/AndroidManifest.xml:20:5-44
MERGED from [com.android.support:support-compat:27.1.1] /Users/sem/IdeaProjects/transceiver-app/client/clienttranslate/platforms/android/build/intermediates/exploded-aar/com.android.support/support-compat/27.1.1/AndroidManifest.xml:20:5-44
MERGED from [android.arch.lifecycle:runtime:1.1.0] /Users/sem/IdeaProjects/transceiver-app/client/clienttranslate/platforms/android/build/intermediates/exploded-aar/android.arch.lifecycle/runtime/1.1.0/AndroidManifest.xml:20:5-44
MERGED from [android.arch.lifecycle:livedata-core:1.1.0] /Users/sem/IdeaProjects/transceiver-app/client/clienttranslate/platforms/android/build/intermediates/exploded-aar/android.arch.lifecycle/livedata-core/1.1.0/AndroidManifest.xml:20:5-44
MERGED from [android.arch.core:runtime:1.1.0] /Users/sem/IdeaProjects/transceiver-app/client/clienttranslate/platforms/android/build/intermediates/exploded-aar/android.arch.core/runtime/1.1.0/AndroidManifest.xml:20:5-44
MERGED from [android.arch.lifecycle:viewmodel:1.1.0] /Users/sem/IdeaProjects/transceiver-app/client/clienttranslate/platforms/android/build/intermediates/exploded-aar/android.arch.lifecycle/viewmodel/1.1.0/AndroidManifest.xml:20:5-44
MERGED from [org.apache.cordova:CordovaLib:6.3.0:debug] /Users/sem/IdeaProjects/transceiver-app/client/clienttranslate/platforms/android/build/intermediates/exploded-aar/org.apache.cordova/CordovaLib/6.3.0/debug/AndroidManifest.xml:25:5-44
	android:targetSdkVersion
		ADDED from /Users/sem/IdeaProjects/transceiver-app/client/clienttranslate/platforms/android/AndroidManifest.xml:21:42-71
	android:minSdkVersion
		ADDED from /Users/sem/IdeaProjects/transceiver-app/client/clienttranslate/platforms/android/AndroidManifest.xml:21:15-41
		INJECTED from /Users/sem/IdeaProjects/transceiver-app/client/clienttranslate/platforms/android/AndroidManifest.xml
		INJECTED from /Users/sem/IdeaProjects/transceiver-app/client/clienttranslate/platforms/android/AndroidManifest.xml
uses-permission#android.permission.ACCESS_WIFI_STATE
ADDED from /Users/sem/IdeaProjects/transceiver-app/client/clienttranslate/platforms/android/AndroidManifest.xml:23:5-76
	android:name
		ADDED from /Users/sem/IdeaProjects/transceiver-app/client/clienttranslate/platforms/android/AndroidManifest.xml:23:22-73
uses-feature#0x00020000
ADDED from /Users/sem/IdeaProjects/transceiver-app/client/clienttranslate/platforms/android/AndroidManifest.xml:24:5-78
	android:glEsVersion
		ADDED from /Users/sem/IdeaProjects/transceiver-app/client/clienttranslate/platforms/android/AndroidManifest.xml:24:19-51
	android:required
		ADDED from /Users/sem/IdeaProjects/transceiver-app/client/clienttranslate/platforms/android/AndroidManifest.xml:24:52-75
